<?xml version="1.0" encoding="utf-8"?>
<!-- Generator: Adobe Illustrator 19.0.1, SVG Export Plug-In . SVG Version: 6.00 Build 0)  -->
<svg version="1.1" id="Layer_1" xmlns="http://www.w3.org/2000/svg" xmlns:xlink="http://www.w3.org/1999/xlink" x="0px" y="0px"
	 viewBox="-121.7 391.6 179.9 10.6" style="enable-background:new -121.7 391.6 179.9 10.6;" xml:space="preserve">
<style type="text/css">
	.st0{fill:#FFFFFF;}
</style>
<title>MRA Banner</title>
<g>
	<path class="st0" d="M-111.8,397.6c-3.1,1.6-4.7,0.1-4.7,0.1c-0.4-0.4-0.4-0.9,0-1.3c0.1-0.1,0.3-0.2,0.5-0.3l0,0h0.4
		c0.4,0,0.8,0.1,1.1,0.2l0,0h0.1c0.1,0,0.2,0,0.3-0.1c0-0.1,0-0.2-0.1-0.2l0,0c-0.9-1-2.2-1.6-3.5-1.6c-1.6,0-3.1,0.8-4,2.1l0,0
		c0,0.1,0,0.3,0,0.4c-0.2,2.8,1.9,5.1,4.7,5.3C-114.3,402.4-111.9,400.3-111.8,397.6L-111.8,397.6L-111.8,397.6L-111.8,397.6z
		 M-112.4,398.4c-0.7,2.4-3.3,3.8-5.7,3.1c-2-0.6-3.3-2.4-3.3-4.5c0-0.1,0-0.2,0-0.3l0,0c0.3-0.3,0.6-0.6,0.9-0.8l0,0
		c1-0.6,2.3-0.8,3.4-0.5l0,0c-0.7,0.3-1.1,0.9-1.2,1.7c0,0.9,0.7,1.7,1.6,1.9l0,0C-115.1,399.2-113.7,399-112.4,398.4L-112.4,398.4
		L-112.4,398.4z"/>
	<path class="st0" d="M-111.7,397C-111.7,397-111.7,396.9-111.7,397c0.1-2.9-2-5.3-4.8-5.4c-2.5-0.1-4.7,1.6-5.2,4.1l0,0l0,0
		c0,0,0,0,0.1,0c0,0,0,0,0,0l0,0c0.7-2.5,3.3-4,5.9-3.3c2.1,0.6,3.5,2.5,3.5,4.7v0.1c0,0.1,0.1,0.3,0.2,0.3c0.1,0,0.3-0.1,0.3-0.2
		C-111.7,397.1-111.7,397.1-111.7,397L-111.7,397L-111.7,397L-111.7,397z"/>
	<path class="st0" d="M-108.7,393.5l-0.2,6.4v0.1c0,0.2,0,0.3,0.1,0.4c0.1,0.2,0.3,0.3,0.5,0.3h0.4v0.3c-0.5,0-0.9-0.1-1.2-0.1
		s-0.7,0-1.3,0.1v-0.3c0.3,0,0.5,0,0.7-0.1c0.1-0.1,0.2-0.2,0.3-0.4c0-0.1,0-0.2,0-0.4l0.2-6.1v-0.1c0-0.2,0-0.3,0-0.5
		c-0.3-0.2-0.6-0.4-1-0.3v-0.3c0.4,0,0.8,0,1.1,0c0.3,0,0.8,0,1.2-0.1l2.3,6.2l2.4-6.1c0.5,0,0.9,0.1,1.3,0.1s0.7,0,1.1,0v0.3
		c-0.3,0-0.6,0.1-0.9,0.2c-0.1,0.2-0.2,0.4-0.2,0.6l0.1,6.1c0,0.2,0,0.4,0.1,0.5c0.1,0.2,0.3,0.3,0.5,0.3h0.4v0.3
		c-0.7-0.1-1.2-0.1-1.6-0.1s-1,0-1.7,0.1v-0.3c0.3,0,0.7,0,0.9-0.2c0.1-0.2,0.2-0.4,0.2-0.6l-0.2-6.4l-2.1,5.6
		c-0.1,0.2-0.3,0.8-0.6,1.7h-0.2l-0.1-0.4l-0.2-0.5l-0.2-0.5l-0.2-0.5L-108.7,393.5L-108.7,393.5L-108.7,393.5z"/>
	<path class="st0" d="M-96.7,397.7c-0.5,0.1-0.9,0.2-1.3,0.4c-0.5,0.2-0.8,0.8-0.8,1.3c0,0.3,0.1,0.6,0.3,0.9
		c0.2,0.2,0.4,0.3,0.7,0.3c0.5,0,0.9-0.3,1-0.7c0.1-0.3,0.1-0.7,0.1-1.1L-96.7,397.7L-96.7,397.7L-96.7,397.7z M-94.8,400.7v0.3
		c-0.2,0.1-0.5,0.1-0.8,0.1c-0.3,0-0.6-0.1-0.8-0.4c-0.1-0.2-0.2-0.5-0.2-0.7c-0.1,0.2-0.3,0.5-0.5,0.7c-0.3,0.3-0.8,0.5-1.2,0.4
		c-0.5,0-0.9-0.1-1.2-0.4c-0.3-0.3-0.5-0.7-0.5-1.2c0-0.8,0.6-1.5,1.4-1.7c0.6-0.2,1.2-0.4,1.9-0.5v-0.8c0-0.3,0-0.6-0.2-0.9
		c-0.2-0.3-0.5-0.4-0.8-0.4c-0.3,0-0.5,0.1-0.7,0.2c-0.2,0.1-0.3,0.3-0.3,0.5c0,0,0,0.1,0,0.2s0,0.1,0,0.2c0,0.3-0.1,0.5-0.4,0.6
		c0,0-0.1,0-0.1,0c-0.2,0-0.4-0.1-0.5-0.4c0,0,0-0.1,0-0.1c0-0.4,0.2-0.8,0.6-1c0.4-0.4,1-0.6,1.6-0.5c0.4,0,0.8,0.1,1.2,0.3
		c0.4,0.2,0.7,0.6,0.8,1c0.1,0.3,0.1,0.7,0.1,1v2.5c0,0.3,0,0.5,0.1,0.8c0.1,0.2,0.2,0.3,0.4,0.3c0.1,0,0.2,0,0.3,0l0,0L-94.8,400.7
		z"/>
	<path class="st0" d="M-94.4,395.5v-0.2c0.6,0,1.2-0.1,1.7-0.3c0.1,0.4,0.1,0.8,0.1,1.2c0.2-0.6,0.8-1.1,1.5-1.1
		c0.3,0,0.6,0.1,0.8,0.3c0.2,0.2,0.3,0.5,0.3,0.7c0,0.2,0,0.3-0.1,0.4c-0.1,0.1-0.3,0.2-0.4,0.2c-0.1,0-0.3,0-0.4-0.1
		c-0.1-0.1-0.2-0.2-0.2-0.3c0,0,0-0.1,0-0.1c0-0.1,0-0.2,0-0.2c0-0.1,0-0.2,0-0.2c-0.1-0.1-0.2-0.1-0.3-0.1c-0.2,0-0.4,0.1-0.5,0.2
		c-0.2,0.1-0.3,0.3-0.4,0.5c-0.1,0.4-0.2,0.8-0.2,1.2v2.7c0,0.1,0,0.3,0.1,0.4c0.1,0.2,0.3,0.2,0.5,0.2h0.4v0.3
		c-0.6-0.1-1.1-0.1-1.5-0.1c-0.4,0-0.9,0-1.5,0.1v-0.2c0.2,0,0.4,0,0.7-0.1c0.1-0.1,0.2-0.2,0.2-0.3c0-0.1,0-0.2,0-0.3v-3.8
		c0-0.3,0-0.4,0-0.5c0-0.2-0.2-0.4-0.4-0.3c0,0,0,0,0,0L-94.4,395.5L-94.4,395.5L-94.4,395.5z"/>
	<path class="st0" d="M-88.3,392.6c0.2,0,0.4,0.1,0.5,0.2c0.1,0.1,0.2,0.3,0.2,0.5c0,0.2-0.1,0.4-0.2,0.5c-0.1,0.1-0.3,0.2-0.5,0.2
		c-0.2,0-0.4-0.1-0.5-0.2c-0.1-0.1-0.2-0.3-0.2-0.5c0-0.2,0.1-0.4,0.2-0.5C-88.7,392.7-88.5,392.6-88.3,392.6L-88.3,392.6
		L-88.3,392.6z M-87.7,394.9v5.2c0,0.1,0,0.3,0.1,0.4c0.1,0.2,0.3,0.2,0.5,0.2h0.4v0.3c-0.6-0.1-1.1-0.1-1.5-0.1s-0.9,0-1.5,0.1
		v-0.2c0.2,0,0.4,0,0.7-0.1c0.1-0.1,0.2-0.2,0.2-0.3c0-0.1,0-0.2,0-0.3v-3.8c0-0.2,0-0.4-0.1-0.6c-0.1-0.2-0.2-0.3-0.4-0.3h-0.4
		v-0.3C-89.1,395.2-88.4,395.1-87.7,394.9L-87.7,394.9L-87.7,394.9z"/>
	<path class="st0" d="M-86.5,395.6v-0.2c0.6-0.1,1.2-0.2,1.8-0.4c0.1,0.4,0.1,0.7,0.2,1.1c0.4-0.6,1-1,1.7-1c0.6,0,1.2,0.3,1.6,0.8
		c0.2,0.4,0.3,0.9,0.3,1.4v3c0,0.1,0,0.3,0.1,0.4c0.1,0.2,0.3,0.2,0.5,0.2h0.4v0.3c-0.5-0.1-1-0.1-1.4-0.1c-0.4,0-0.9,0-1.4,0.1
		v-0.2c0.2,0,0.4,0,0.6-0.1c0.2-0.1,0.2-0.3,0.2-0.5v-3.1c0-0.3,0-0.7-0.2-1c-0.2-0.3-0.5-0.5-0.9-0.5c-0.4,0-0.8,0.2-1,0.5
		c-0.2,0.3-0.3,0.7-0.2,1v3.1c0,0.2,0.1,0.4,0.2,0.6c0.2,0.1,0.4,0.1,0.6,0.1v0.3c-0.5-0.1-1-0.1-1.4-0.1s-0.9,0-1.4,0.1v-0.2
		c0.2,0,0.4,0,0.7-0.1c0.1-0.1,0.2-0.2,0.2-0.3c0-0.1,0-0.2,0-0.3v-3.8c0-0.2,0-0.4-0.1-0.7c-0.1-0.1-0.3-0.2-0.4-0.1L-86.5,395.6
		L-86.5,395.6z"/>
	<path class="st0" d="M-76.3,397.5c0-0.4-0.1-0.8-0.2-1.2c-0.1-0.5-0.5-1-1.1-1c-0.8,0-1.2,0.7-1.3,2.2L-76.3,397.5L-76.3,397.5z
		 M-75.7,399.2h0.5c-0.1,0.5-0.2,0.9-0.5,1.2c-0.4,0.5-1.1,0.9-1.8,0.8c-0.7,0-1.5-0.3-1.9-0.8c-0.5-0.6-0.7-1.4-0.7-2.3
		c0-0.8,0.2-1.7,0.7-2.3c0.8-1,2.3-1.1,3.3-0.3c0.6,0.7,0.9,1.6,0.9,2.5h-3.7c0,0.6,0.1,1.2,0.2,1.7c0.3,0.8,1.1,1.2,1.9,0.9
		c0.3-0.1,0.6-0.3,0.8-0.7C-75.9,399.7-75.8,399.4-75.7,399.2L-75.7,399.2L-75.7,399.2z"/>
	<path class="st0" d="M-74.8,395.5v-0.2c0.6,0,1.2-0.1,1.7-0.3c0.1,0.4,0.1,0.8,0.1,1.2c0.2-0.7,0.8-1.1,1.5-1.1
		c0.3,0,0.6,0.1,0.8,0.3c0.2,0.2,0.3,0.5,0.3,0.7c0,0.2,0,0.3-0.1,0.4c-0.1,0.1-0.3,0.2-0.4,0.2c-0.1,0-0.3,0-0.4-0.1
		c-0.1-0.1-0.2-0.2-0.2-0.3c0,0,0-0.1,0-0.1c0-0.1,0-0.2,0-0.2c0-0.1,0-0.2-0.1-0.2c-0.1-0.1-0.2-0.1-0.3-0.1
		c-0.2,0-0.4,0.1-0.5,0.2c-0.2,0.1-0.3,0.3-0.4,0.5c-0.1,0.4-0.2,0.8-0.2,1.2v2.7c0,0.1,0,0.3,0.1,0.4c0.1,0.2,0.3,0.2,0.5,0.2h0.4
		v0.3c-0.6-0.1-1-0.1-1.4-0.1c-0.4,0-0.9,0-1.5,0.1v-0.2c0.2,0,0.4,0,0.7-0.1c0.1-0.1,0.2-0.2,0.2-0.3c0-0.1,0-0.2,0-0.3v-3.8
		c0-0.3,0-0.4,0-0.5c0-0.2-0.2-0.4-0.4-0.3c0,0,0,0,0,0L-74.8,395.5L-74.8,395.5L-74.8,395.5z"/>
</g>
<path class="st0" d="M-64.3,394.3h3c0.7,0,1.5,0.2,2,0.7c0.4,0.4,0.6,0.9,0.5,1.4l0,0c0,1.1-0.8,1.9-1.9,2l2.2,2.9h-1l-2-2.7h-2v2.8
	h-0.8V394.3z M-61.3,397.9c0.8,0.1,1.6-0.4,1.8-1.3c0-0.1,0-0.1,0-0.2l0,0c0-0.9-0.7-1.4-1.8-1.4h-2.2v2.8L-61.3,397.9L-61.3,397.9z
	"/>
<path class="st0" d="M-57,394.3h5v0.7h-4.3v2.4h3.8v0.7h-3.8v2.4h4.3v0.7H-57V394.3z"/>
<path class="st0" d="M-48.6,395h-2.4v-0.7h5.5v0.7h-2.4v6.3h-0.8V395z"/>
<path class="st0" d="M-43.9,394.3h0.8v7h-0.8V394.3z"/>
<path class="st0" d="M-41.1,394.3h3c0.7,0,1.5,0.2,2,0.7c0.4,0.4,0.6,0.9,0.5,1.4l0,0c0,1.1-0.8,1.9-1.9,2l2.1,2.9h-1l-2-2.7h-2v2.8
	h-0.8C-41.1,401.3-41.1,394.3-41.1,394.3z M-38.1,397.9c0.8,0.1,1.6-0.4,1.8-1.3c0-0.1,0-0.1,0-0.2l0,0c0-0.9-0.7-1.4-1.8-1.4h-2.2
	v2.8L-38.1,397.9L-38.1,397.9z"/>
<path class="st0" d="M-33.8,394.3h5.1v0.7H-33v2.4h3.8v0.7H-33v2.4h4.3v0.7h-5.1L-33.8,394.3L-33.8,394.3z"/>
<path class="st0" d="M-27.1,394.3h0.8l2.6,3.8l2.6-3.8h0.8v7h-0.8v-5.7l-2.6,3.8l0,0l-2.6-3.7v5.7h-0.8L-27.1,394.3L-27.1,394.3z"/>
<path class="st0" d="M-18.4,394.3h5.1v0.7h-4.3v2.4h3.8v0.7h-3.8v2.4h4.3v0.7h-5.1V394.3z"/>
<path class="st0" d="M-11.7,394.3h0.7l4.4,5.6v-5.6h0.8v7h-0.6l-4.6-5.7v5.7h-0.8L-11.7,394.3L-11.7,394.3z"/>
<path class="st0" d="M-2,395h-2.4v-0.7h5.5v0.7h-2.4v6.3H-2V395z"/>
<path class="st0" d="M8.2,394.2h0.7l3.2,7h-0.9l-0.8-1.8H6.6l-0.8,1.8H5L8.2,394.2z M10.1,398.7l-1.6-3.6l-1.6,3.6H10.1z"/>
<path class="st0" d="M13.5,394.3h2.4c1.9-0.1,3.6,1.3,3.7,3.3c0,0.1,0,0.2,0,0.2l0,0c0,1.9-1.6,3.5-3.5,3.5c-0.1,0-0.2,0-0.2,0h-2.4
	V394.3L13.5,394.3z M14.3,395v5.5h1.6c1.5,0.1,2.8-1,2.9-2.5c0-0.1,0-0.2,0-0.2l0,0c0-1.5-1.1-2.8-2.6-2.8c-0.1,0-0.2,0-0.3,0H14.3z
	"/>
<path class="st0" d="M20.2,394.3h0.9l2.5,6l2.5-6H27l-3,7h-0.7L20.2,394.3z"/>
<path class="st0" d="M28.4,394.3h0.8v7h-0.8V394.3z"/>
<path class="st0" d="M30.8,400.3l0.5-0.6c0.6,0.6,1.5,1,2.4,1c0.7,0.1,1.4-0.4,1.5-1.1c0,0,0-0.1,0-0.1l0,0c0-0.6-0.4-1-1.8-1.3
	c-1.5-0.3-2.4-0.9-2.4-2l0,0c0.1-1.1,1.1-2,2.2-1.9c0,0,0.1,0,0.1,0c0.9,0,1.8,0.3,2.5,0.9l-0.5,0.6c-0.6-0.5-1.3-0.8-2-0.8
	c-0.7-0.1-1.4,0.3-1.5,1l0,0c0,0.7,0.4,1,1.9,1.4c1.5,0.4,2.3,0.9,2.3,2l0,0c0,1.2-1,2.1-2.2,2c-0.1,0-0.1,0-0.2,0
	C32.6,401.4,31.6,401,30.8,400.3z"/>
<path class="st0" d="M37.3,397.8L37.3,397.8c0-2,1.6-3.6,3.6-3.6c2,0,3.6,1.6,3.6,3.6c0,0,0,0,0,0l0,0c0,2-1.6,3.6-3.6,3.6
	C38.9,401.4,37.3,399.8,37.3,397.8C37.3,397.8,37.3,397.8,37.3,397.8z M43.7,397.8L43.7,397.8c0.1-1.5-1.1-2.8-2.7-2.9
	c0,0-0.1,0-0.1,0c-1.5,0-2.7,1.2-2.7,2.8c0,0,0,0.1,0,0.1l0,0c-0.1,1.5,1.1,2.8,2.7,2.9c0,0,0.1,0,0.1,0c1.5,0,2.7-1.2,2.7-2.8
	C43.7,397.9,43.7,397.9,43.7,397.8z"/>
<path class="st0" d="M46.1,394.3h3c0.7,0,1.5,0.2,2,0.7c0.4,0.4,0.6,0.9,0.5,1.4l0,0c0,1.1-0.8,1.9-1.9,2l2.1,2.9h-1l-2-2.7h-2v2.8
	h-0.8V394.3z M49.1,397.9c0.8,0.1,1.6-0.4,1.8-1.3c0-0.1,0-0.1,0-0.2l0,0c0-0.9-0.7-1.4-1.8-1.4h-2.2v2.8L49.1,397.9L49.1,397.9z"/>
<path class="st0" d="M52.9,400.3l0.5-0.6c0.6,0.6,1.5,1,2.4,1c0.7,0.1,1.4-0.4,1.5-1.1c0,0,0-0.1,0-0.1l0,0c0-0.6-0.4-1-1.8-1.3
	c-1.5-0.3-2.4-0.9-2.4-2l0,0c0.1-1.1,1.1-2,2.2-1.9c0,0,0.1,0,0.1,0c0.9,0,1.8,0.3,2.5,0.9l-0.5,0.6c-0.6-0.5-1.3-0.8-2-0.8
	c-0.7-0.1-1.4,0.3-1.5,1l0,0c0,0.7,0.4,1,1.9,1.4c1.5,0.4,2.3,0.9,2.3,2l0,0c0,1.2-1,2.1-2.2,2c-0.1,0-0.1,0-0.2,0
	C54.7,401.4,53.7,401,52.9,400.3z"/>
</svg>
